<?xml version="1.0" encoding="UTF-8" standalone="no"?>
<svg
   version="1.1"
   id="linux-logo"
   width="512"
   height="707.00208"
   viewBox="0 0 512 707.00208"
   sodipodi:docname="linux-logo-greyscale.svg"
   inkscape:version="1.2.2 (b0a8486541, 2022-12-01)"
   xmlns:inkscape="http://www.inkscape.org/namespaces/inkscape"
   xmlns:sodipodi="http://sodipodi.sourceforge.net/DTD/sodipodi-0.dtd"
   xmlns="http://www.w3.org/2000/svg"
   xmlns:svg="http://www.w3.org/2000/svg"
   xmlns:rdf="http://www.w3.org/1999/02/22-rdf-syntax-ns#"
   xmlns:cc="http://creativecommons.org/ns#"
   xmlns:dc="http://purl.org/dc/elements/1.1/">
  <defs
     id="defs14" />
  <title
     id="title">Minimalist Linux Logo</title>
  <sodipodi:namedview
     id="namedview14"
     pagecolor="#ffffff"
     bordercolor="#000000"
     borderopacity="0.25"
     inkscape:showpageshadow="2"
     inkscape:pageopacity="0"
     inkscape:pagecheckerboard="0"
     inkscape:deskcolor="#d1d1d1"
     showgrid="false"
     inkscape:zoom="0.46146555"
     inkscape:cx="-36.839153"
     inkscape:cy="486.49353"
     inkscape:window-width="1630"
     inkscape:window-height="1599"
     inkscape:window-x="1691"
     inkscape:window-y="451"
     inkscape:window-maximized="0"
     inkscape:current-layer="text" />
  <path
     id="icon"
     style="fill:#8c8d8a"
     d="M 256.01474,0 C 190.06541,0 137.04275,53.10466 137.04275,119.05933 v 2.477 a 2.3995675,2.3997566 0 0 1 -3.096,2.32233 v 0 a 106.50984,106.51823 0 0 0 -99.234,22.06233 c -45.20466,40.25367 -46.44333,112.24667 -2.63166,161.48033 0,0 77.94733,79.42433 110.53466,124.24533 30.42033,43.428 56.81566,80.35333 113.39899,80.35333 0,0 0,0 0,0 56.50633,0 82.97867,-36.92533 113.32166,-80.35333 32.58767,-44.821 110.61233,-124.24533 110.61233,-124.24533 43.734,-49.15633 42.573,-121.22666 -2.632,-161.48033 a 106.50984,106.51823 0 0 0 -99.31099,-22.06233 v 0 a 2.3995675,2.3997566 0 0 1 -3.096,-2.32233 v -2.477 C 374.98644,53.10466 321.88674,0 256.01474,0 c 0,0 0,0 0,0 0,0 0,0 0,0 z" />
  <g
     id="text"
     style="font-weight:bold;font-family:Libertine;fill:#8c8d8a"
     transform="translate(-255.99999,-158.49897)">
    <path
       d="m 255.99999,743.78678 v -10.02217 h 55.83387 v 9.8921 h -10.26861 a 4.059525,4.059525 0 0 0 -4.10745,4.10745 v 105.45866 h 34.48201 c 0,0 5.81887,3.29964 7.37286,-26.9517 h 14.37606 v 37.03548 h -97.55867 v -8.89947 h 10.66567 c 0,0 4.55925,-1.36916 4.55925,-4.55927 V 747.3671 c 0,0 -0.48605,-3.29964 -5.5245,-3.29964 z"
       id="text-L" />
    <path
       id="text-i"
       d="m 387.78711,724.44141 a 14.328137,14.328137 0 0 0 -14.32813,14.32812 14.328137,14.328137 0 0 0 14.32813,14.32813 14.328137,14.328137 0 0 0 14.32812,-14.32813 14.328137,14.328137 0 0 0 -14.32812,-14.32812 z m 0.5957,43.07226 -26.56836,10.08399 v 7.77734 l 12.75391,-0.0273 v 66.1289 c -0.38337,3.10112 -5.42969,3.6836 -5.42969,3.6836 h -7.52929 v 8.33789 h 50.22656 v -7.94727 h -7.17383 c -5.81887,0 -6.00977,-4.45703 -6.00977,-4.45703 v -83.58008 z" />
    <path
       d="m 468.27275,863.51887 h -47.50944 v -8.33812 h 7.37286 c 0,0 5.03847,-0.58189 5.23015,-4.07322 v -66.32155 h -13.18489 v -8.15328 l 27.15021,-9.31021 h 9.69356 v 11.82944 c 0,0 21.13966,-11.43923 33.54414,-11.43923 a 23.159146,23.159146 0 0 1 25.01435,25.20602 v 57.40155 a 5.709349,5.709349 0 0 0 6.20224,4.65511 h 7.53032 v 8.5298 h -47.2904 v -8.89947 h 6.59245 a 4.7920196,4.7920196 0 0 0 4.26491,-3.68301 v -50.03554 a 17.470334,17.470334 0 0 0 -18.0317,-16.67622 117.39763,117.39763 0 0 0 -17.64831,3.68301 v 63.22042 a 5.2506842,5.2506842 0 0 0 4.85362,3.68301 h 6.40078 z"
       id="text-n" />
    <path
       d="m 548.17632,784.59428 h -13.00691 v -7.75624 l 26.37664,-9.30336 h 10.66567 v 63.22043 c 0,0 -0.77356,19.96903 18.03853,18.42189 a 82.737641,82.737641 0 0 0 16.86791,-3.10797 V 784.7928 h -12.78785 v -7.75622 l 26.01383,-9.69358 h 10.66566 v 83.21685 c 0,0 -0.19168,3.88153 4.84679,4.26489 h 7.53031 v 9.11853 h -36.28244 v -10.47398 c 0,0 -18.42189,12.21964 -33.35245,12.02112 0,0 -24.82266,1.36915 -25.60308,-26.95169 V 784.6285 Z"
       id="text-u" />
    <path
       d="m 649.60281,777.81006 v -8.89946 h 46.34567 v 8.68039 c 0,0 -10.26861,-0.39019 -7.37286,4.65511 l 15.12224,21.90638 14.93051,-21.90638 c 0,0 3.68997,-4.45657 -8.14638,-4.10744 v -8.89947 h 35.48836 v 8.5298 a 22.077518,22.077518 0 0 0 -12.41133,4.26489 l -22.88535,30.64155 28.50569,40.917 a 21.981678,21.981678 0 0 0 10.26856,2.13587 v 7.9479 h -45.57207 v -7.17434 c 0,0 10.26862,0 6.98265,-5.62035 L 694.78471,826.88034 677.9168,851.3128 c 0,0 -4.26489,4.07322 8.5298,3.87468 v 8.13959 h -37.234 v -7.9479 a 16.279174,16.279174 0 0 0 12.41133,-4.26491 l 25.20602,-32.77741 -24.82266,-36.28243 c 0,0 -1.15692,-4.05268 -12.40448,-4.24436 z"
       id="text-x" />
    <path
       id="text-tm"
       d="m 756.86133,758.90234 v 2.15625 h 0.99219 v 7.08594 h -0.99219 v 1.98438 l 5.05859,-0.0137 v -2.1289 h -2.05273 v -2.98438 h 1.11523 v 1.06836 h 0.95313 v 1.03321 h 1.07422 v -1.11524 h 1 v -0.95312 h 1.0332 v 3.06836 h -2.05469 v 2.05273 H 768 v -1.98437 h -1 v -7.16797 h 1 v -2.05469 h -3.02539 v 2.19922 h -0.95117 v 1.90234 h -1.07617 v 0.99219 h -1.03907 v -0.86914 h -0.95312 v -2.15625 h -1.11524 v -2.11524 z m -11.14453,0.12891 v 5.01172 h 2.05468 l -0.0762,-2.99219 H 749.75 v 7.12695 h -1.9043 v 1.91016 h 5.96289 v -1.94336 h -1.98437 v -7.08594 h 2.05273 v 2.98438 h 1.94532 v -5.01172 z" />
  </g>
  <metadata
     id="metadata692">
    <rdf:RDF>
      <cc:Work
         rdf:about="">
        <dc:title>Minimalist Linux Logo</dc:title>
        <dc:date>2022</dc:date>
        <dc:creator>
          <cc:Agent>
            <dc:title>Clint Quasar</dc:title>
          </cc:Agent>
        </dc:creator>
        <dc:rights>
          <cc:Agent>
            <dc:title>Linux Torvalds</dc:title>
          </cc:Agent>
        </dc:rights>
        <cc:license
           rdf:resource="https://gitlab.com/cquasar/minimalist-linux-logo/LICENSE" />
        <dc:description>https://gitlab.com/cquasar/minimalist-linux-logo</dc:description>
        <dc:contributor>
          <cc:Agent>
            <dc:title>https://gitlab.com/cquasar/minimalist-linux-logo/-/project_members</dc:title>
          </cc:Agent>
        </dc:contributor>
      </cc:Work>
    </rdf:RDF>
  </metadata>
</svg>
