<?xml version="1.0" encoding="UTF-8" standalone="no"?>
<svg
   version="1.1"
   id="linux-logo"
   width="707.00195"
   height="253.73299"
   viewBox="0 0 707.00195 253.73299"
   sodipodi:docname="linux-logo-monochrome-white.svg"
   inkscape:version="1.2.2 (b0a8486541, 2022-12-01)"
   xmlns:inkscape="http://www.inkscape.org/namespaces/inkscape"
   xmlns:sodipodi="http://sodipodi.sourceforge.net/DTD/sodipodi-0.dtd"
   xmlns="http://www.w3.org/2000/svg"
   xmlns:svg="http://www.w3.org/2000/svg"
   xmlns:rdf="http://www.w3.org/1999/02/22-rdf-syntax-ns#"
   xmlns:cc="http://creativecommons.org/ns#"
   xmlns:dc="http://purl.org/dc/elements/1.1/">
  <defs
     id="defs1280" />
  <title
     id="title">Minimalist Linux Logo</title>
  <sodipodi:namedview
     id="namedview14"
     pagecolor="#ffffff"
     bordercolor="#000000"
     borderopacity="0.25"
     inkscape:showpageshadow="2"
     inkscape:pageopacity="0"
     inkscape:pagecheckerboard="0"
     inkscape:deskcolor="#d1d1d1"
     showgrid="false"
     inkscape:zoom="0.70021727"
     inkscape:cx="478.42293"
     inkscape:cy="223.50206"
     inkscape:window-width="1630"
     inkscape:window-height="1599"
     inkscape:window-x="1691"
     inkscape:window-y="451"
     inkscape:window-maximized="0"
     inkscape:current-layer="linux-logo"
     showguides="true" />
  <path
     id="icon"
     style="fill:#ffffff"
     d="M 126.8738,0 C 94.191139,0 67.914579,26.3172 67.914579,59.0025 v 1.22753 a 1.1891591,1.1892528 0 0 1 -1.53429,1.15089 v 0 A 52.783323,52.787481 0 0 0 17.202669,72.3144 c -22.4021803,19.9486 -23.0160303,55.62633 -1.30418,80.02517 0,0 38.62853,39.36049 54.77791,61.57254 15.07547,21.52171 28.15627,39.82088 56.197401,39.82088 0,0 0,0 0,0 28.00297,0 41.12192,-18.29917 56.15907,-39.82088 16.14954,-22.21205 54.8164,-61.57254 54.8164,-61.57254 21.67336,-24.36051 21.098,-60.07657 -1.30434,-80.02517 A 52.783323,52.787481 0 0 0 187.32915,61.38092 v 0 a 1.1891591,1.1892528 0 0 1 -1.53429,-1.15089 V 59.0025 C 185.83286,26.3172 159.51813,0 126.8738,0 c 0,0 0,0 0,0 0,0 0,0 0,0 z" />
  <g
     id="text"
     style="fill:#ffffff"
     transform="translate(-158.499,-385.13346)">
    <path
       d="m 454.41695,470.90399 v -8.04678 h 44.82892 v 7.94235 h -8.24465 a 3.2593862,3.2593862 0 0 0 -3.29786,3.29786 v 84.67259 h 27.68555 c 0,0 4.67196,2.64928 5.91966,-21.63947 h 11.54251 v 29.73573 h -78.3297 v -7.14538 h 8.56345 c 0,0 3.66061,-1.09929 3.66061,-3.66063 v -82.28164 c 0,0 -0.39024,-2.64927 -4.43561,-2.64927 z"
       id="text-L"
       style="font-weight:bold;font-family:Libertine" />
    <path
       id="text-i"
       d="m 560.22862,455.37162 a 11.504039,11.504039 0 0 0 -11.50404,11.50403 11.504039,11.504039 0 0 0 11.50404,11.50403 11.504039,11.504039 0 0 0 11.50402,-11.50403 11.504039,11.504039 0 0 0 -11.50402,-11.50403 z m 0.47828,34.58265 -21.33169,8.09642 v 6.24442 l 10.24009,-0.0219 V 557.368 c -0.3078,2.48988 -4.35949,2.95755 -4.35949,2.95755 h -6.04525 v 6.69448 h 40.32683 v -6.38085 h -5.75986 c -4.67196,0 -4.82524,-3.57854 -4.82524,-3.57854 v -67.10631 z"
       style="font-weight:bold;font-family:Libertine" />
    <path
       d="m 624.85041,567.0367 h -38.14525 v -6.69467 h 5.91965 c 0,0 4.04538,-0.4672 4.19928,-3.27038 v -53.24947 h -10.58612 v -6.54625 l 21.79886,-7.47516 h 7.78294 v 9.49784 c 0,0 16.973,-9.18454 26.93254,-9.18454 a 18.594442,18.594442 0 0 1 20.08398,20.23788 v 46.08761 a 4.5840273,4.5840273 0 0 0 4.97977,3.73758 h 6.04608 v 6.84856 h -37.96939 v -7.14537 h 5.29307 a 3.847505,3.847505 0 0 0 3.42429,-2.95708 V 516.7498 a 14.026904,14.026904 0 0 0 -14.47762,-13.38932 94.258372,94.258372 0 0 0 -14.1698,2.95709 v 50.75957 a 4.215766,4.215766 0 0 0 3.89696,2.95709 h 5.13918 z"
       id="text-n"
       style="font-weight:bold;font-family:Libertine" />
    <path
       d="m 689.00486,503.66827 h -10.44323 v -6.22748 l 21.17777,-7.46965 h 8.56345 v 50.75959 c 0,0 -0.62109,16.0331 14.4831,14.7909 a 66.429921,66.429921 0 0 0 13.54322,-2.49538 v -49.19859 h -10.26734 v -6.22746 l 20.88646,-7.78296 h 8.56344 v 66.81468 c 0,0 -0.1539,3.11647 3.89148,3.42427 h 6.04608 v 7.32126 h -29.13112 v -8.40955 c 0,0 -14.7909,9.81113 -26.77863,9.65174 0,0 -19.93007,1.09929 -20.55667,-21.63947 v -43.28443 z"
       id="text-u"
       style="font-weight:bold;font-family:Libertine" />
    <path
       d="m 770.44003,498.22123 v -7.14536 h 37.21086 v 6.96947 c 0,0 -8.24465,-0.31329 -5.91965,3.73758 l 12.14162,17.5886 11.98768,-17.5886 c 0,0 2.96267,-3.57818 -6.54071,-3.29786 v -7.14537 h 28.49355 v 6.84856 a 17.726004,17.726004 0 0 0 -9.96504,3.42428 l -18.37461,24.60205 22.88717,32.85219 a 17.649055,17.649055 0 0 0 8.24461,1.71489 v 6.38136 h -36.58974 v -5.76027 c 0,0 8.24466,0 5.60636,-4.51257 l -12.90562,-19.2705 -13.54322,19.61678 c 0,0 -3.42428,3.27038 6.84856,3.11098 v 6.53526 h -29.89512 v -6.38136 a 13.070523,13.070523 0 0 0 9.96504,-3.42429 l 20.23787,-26.31693 -19.93007,-29.1311 c 0,0 -0.92889,-3.25389 -9.95954,-3.40779 z"
       id="text-x"
       style="font-weight:bold;font-family:Libertine" />
    <path
       id="text-tm"
       d="m 856.55773,483.04025 v 1.73125 h 0.79662 v 5.68929 h -0.79662 v 1.59326 l 4.06153,-0.011 v -1.7093 h -1.64813 v -2.39615 h 0.89541 v 0.85779 h 0.76527 v 0.82956 h 0.86249 v -0.89543 h 0.8029 v -0.76525 h 0.82955 v 2.46358 h -1.64971 v 1.64813 h 4.02391 v -1.59325 h -0.8029 v -5.75515 h 0.8029 v -1.64971 h -2.42908 v 1.76575 h -0.7637 v 1.52739 h -0.86405 v 0.79663 h -0.83427 v -0.69783 h -0.76526 v -1.73125 h -0.89542 v -1.69833 z m -8.94793,0.1035 v 4.0239 h 1.6497 l -0.0612,-2.40242 h 1.64973 v 5.72222 h -1.52896 v 1.53366 h 4.7876 v -1.56032 h -1.59325 v -5.68929 h 1.64813 v 2.39615 h 1.5619 v -4.0239 z"
       style="font-weight:bold;font-family:Libertine" />
  </g>
  <metadata
     id="metadata692">
    <rdf:RDF>
      <cc:Work
         rdf:about="">
        <dc:title>Minimalist Linux Logo</dc:title>
        <dc:date>2022</dc:date>
        <dc:creator>
          <cc:Agent>
            <dc:title>Clint Quasar</dc:title>
          </cc:Agent>
        </dc:creator>
        <dc:rights>
          <cc:Agent>
            <dc:title>Linux Torvalds</dc:title>
          </cc:Agent>
        </dc:rights>
        <cc:license
           rdf:resource="https://gitlab.com/cquasar/minimalist-linux-logo/LICENSE" />
        <dc:description>https://gitlab.com/cquasar/minimalist-linux-logo</dc:description>
        <dc:contributor>
          <cc:Agent>
            <dc:title>https://gitlab.com/cquasar/minimalist-linux-logo/-/project_members</dc:title>
          </cc:Agent>
        </dc:contributor>
      </cc:Work>
    </rdf:RDF>
  </metadata>
</svg>
