<?xml version="1.0" encoding="UTF-8" standalone="no"?>
<svg
   version="1.1"
   id="linux-logo"
   width="1024"
   height="1024"
   viewBox="0 0 1024 1024"
   sodipodi:docname="linux-logo-monochrome.svg"
   inkscape:version="1.2.2 (b0a8486541, 2022-12-01)"
   xmlns:inkscape="http://www.inkscape.org/namespaces/inkscape"
   xmlns:sodipodi="http://sodipodi.sourceforge.net/DTD/sodipodi-0.dtd"
   xmlns="http://www.w3.org/2000/svg"
   xmlns:svg="http://www.w3.org/2000/svg"
   xmlns:rdf="http://www.w3.org/1999/02/22-rdf-syntax-ns#"
   xmlns:cc="http://creativecommons.org/ns#"
   xmlns:dc="http://purl.org/dc/elements/1.1/">
  <title
     id="title">Minimalist Linux Logo</title>
  <sodipodi:namedview
     id="namedview14"
     pagecolor="#ffffff"
     bordercolor="#000000"
     borderopacity="0.25"
     inkscape:showpageshadow="2"
     inkscape:pageopacity="0"
     inkscape:pagecheckerboard="0"
     inkscape:deskcolor="#d1d1d1"
     showgrid="false"
     inkscape:zoom="8.0898048"
     inkscape:cx="742.04509"
     inkscape:cy="763.24462"
     inkscape:window-width="1630"
     inkscape:window-height="1599"
     inkscape:window-x="2709"
     inkscape:window-y="451"
     inkscape:window-maximized="0"
     inkscape:current-layer="text" />
  <path
     id="icon"
     style="fill:#eebc1d;"
     d="m 512.01473,158.49897 c -65.94933,0 -118.97199,53.10466 -118.97199,119.05933 v 2.477 a 2.3995675,2.3997566 0 0 1 -3.096,2.32233 v 0 a 106.50984,106.51823 0 0 0 -99.234,22.06233 c -45.20466,40.25367 -46.44333,112.24667 -2.63166,161.48033 0,0 77.94733,79.42433 110.53466,124.24533 30.42033,43.428 56.81566,80.35333 113.39899,80.35333 0,0 0,0 0,0 56.50633,0 82.97867,-36.92533 113.32166,-80.35333 32.58767,-44.821 110.61233,-124.24533 110.61233,-124.24533 43.734,-49.15633 42.573,-121.22666 -2.632,-161.48033 a 106.50984,106.51823 0 0 0 -99.31099,-22.06233 v 0 a 2.3995675,2.3997566 0 0 1 -3.096,-2.32233 v -2.477 c 0.0767,-65.95467 -53.023,-119.05933 -118.895,-119.05933 0,0 0,0 0,0 0,0 0,0 0,0 z" />
  <g
     id="text"
     style="font-family:Libertine;font-weight:bold;fill:#f1f2f2">
    <path
       d="m 255.99999,743.78678 v -10.02217 h 55.83387 v 9.8921 h -10.26861 a 4.059525,4.059525 0 0 0 -4.10745,4.10745 v 105.45866 h 34.48201 c 0,0 5.81887,3.29964 7.37286,-26.9517 h 14.37606 v 37.03548 h -97.55867 v -8.89947 h 10.66567 c 0,0 4.55925,-1.36916 4.55925,-4.55927 V 747.3671 c 0,0 -0.48605,-3.29964 -5.5245,-3.29964 z"
       id="text-L" />
    <path
       id="text-i"
       d="M 387.78711 724.44141 A 14.328137 14.328137 0 0 0 373.45898 738.76953 A 14.328137 14.328137 0 0 0 387.78711 753.09766 A 14.328137 14.328137 0 0 0 402.11523 738.76953 A 14.328137 14.328137 0 0 0 387.78711 724.44141 z M 388.38281 767.51367 L 361.81445 777.59766 L 361.81445 785.375 L 374.56836 785.34766 L 374.56836 851.47656 C 374.18499 854.57768 369.13867 855.16016 369.13867 855.16016 L 361.60938 855.16016 L 361.60938 863.49805 L 411.83594 863.49805 L 411.83594 855.55078 L 404.66211 855.55078 C 398.84324 855.55078 398.65234 851.09375 398.65234 851.09375 L 398.65234 767.51367 L 388.38281 767.51367 z " />
    <path
       d="m 468.27275,863.51887 h -47.50944 v -8.33812 h 7.37286 c 0,0 5.03847,-0.58189 5.23015,-4.07322 v -66.32155 h -13.18489 v -8.15328 l 27.15021,-9.31021 h 9.69356 v 11.82944 c 0,0 21.13966,-11.43923 33.54414,-11.43923 a 23.159146,23.159146 0 0 1 25.01435,25.20602 v 57.40155 a 5.709349,5.709349 0 0 0 6.20224,4.65511 h 7.53032 v 8.5298 h -47.2904 v -8.89947 h 6.59245 a 4.7920196,4.7920196 0 0 0 4.26491,-3.68301 v -50.03554 a 17.470334,17.470334 0 0 0 -18.0317,-16.67622 117.39763,117.39763 0 0 0 -17.64831,3.68301 v 63.22042 a 5.2506842,5.2506842 0 0 0 4.85362,3.68301 h 6.40078 z"
       id="text-n" />
    <path
       d="m 548.17632,784.59428 h -13.00691 v -7.75624 l 26.37664,-9.30336 h 10.66567 v 63.22043 c 0,0 -0.77356,19.96903 18.03853,18.42189 a 82.737641,82.737641 0 0 0 16.86791,-3.10797 V 784.7928 h -12.78785 v -7.75622 l 26.01383,-9.69358 h 10.66566 v 83.21685 c 0,0 -0.19168,3.88153 4.84679,4.26489 h 7.53031 v 9.11853 h -36.28244 v -10.47398 c 0,0 -18.42189,12.21964 -33.35245,12.02112 0,0 -24.82266,1.36915 -25.60308,-26.95169 V 784.6285 Z"
       id="text-u" />
    <path
       d="m 649.60281,777.81006 v -8.89946 h 46.34567 v 8.68039 c 0,0 -10.26861,-0.39019 -7.37286,4.65511 l 15.12224,21.90638 14.93051,-21.90638 c 0,0 3.68997,-4.45657 -8.14638,-4.10744 v -8.89947 h 35.48836 v 8.5298 a 22.077518,22.077518 0 0 0 -12.41133,4.26489 l -22.88535,30.64155 28.50569,40.917 a 21.981678,21.981678 0 0 0 10.26856,2.13587 v 7.9479 h -45.57207 v -7.17434 c 0,0 10.26862,0 6.98265,-5.62035 L 694.78471,826.88034 677.9168,851.3128 c 0,0 -4.26489,4.07322 8.5298,3.87468 v 8.13959 h -37.234 v -7.9479 a 16.279174,16.279174 0 0 0 12.41133,-4.26491 l 25.20602,-32.77741 -24.82266,-36.28243 c 0,0 -1.15692,-4.05268 -12.40448,-4.24436 z"
       id="text-x" />
    <path
       id="text-tm"
       d="M 756.86133 758.90234 L 756.86133 761.05859 L 757.85352 761.05859 L 757.85352 768.14453 L 756.86133 768.14453 L 756.86133 770.12891 L 761.91992 770.11523 L 761.91992 767.98633 L 759.86719 767.98633 L 759.86719 765.00195 L 760.98242 765.00195 L 760.98242 766.07031 L 761.93555 766.07031 L 761.93555 767.10352 L 763.00977 767.10352 L 763.00977 765.98828 L 764.00977 765.98828 L 764.00977 765.03516 L 765.04297 765.03516 L 765.04297 768.10352 L 762.98828 768.10352 L 762.98828 770.15625 L 768 770.15625 L 768 768.17188 L 767 768.17188 L 767 761.00391 L 768 761.00391 L 768 758.94922 L 764.97461 758.94922 L 764.97461 761.14844 L 764.02344 761.14844 L 764.02344 763.05078 L 762.94727 763.05078 L 762.94727 764.04297 L 761.9082 764.04297 L 761.9082 763.17383 L 760.95508 763.17383 L 760.95508 761.01758 L 759.83984 761.01758 L 759.83984 758.90234 L 756.86133 758.90234 z M 745.7168 759.03125 L 745.7168 764.04297 L 747.77148 764.04297 L 747.69531 761.05078 L 749.75 761.05078 L 749.75 768.17773 L 747.8457 768.17773 L 747.8457 770.08789 L 753.80859 770.08789 L 753.80859 768.14453 L 751.82422 768.14453 L 751.82422 761.05859 L 753.87695 761.05859 L 753.87695 764.04297 L 755.82227 764.04297 L 755.82227 759.03125 L 745.7168 759.03125 z " />
  </g>
  <metadata
     id="metadata692">
    <rdf:RDF>
      <cc:Work
         rdf:about="">
        <dc:title>Minimalist Linux Logo</dc:title>
        <dc:date>2022</dc:date>
        <dc:creator>
          <cc:Agent>
            <dc:title>Clint Quasar</dc:title>
          </cc:Agent>
        </dc:creator>
        <dc:rights>
          <cc:Agent>
            <dc:title>Linux Torvalds</dc:title>
          </cc:Agent>
        </dc:rights>
        <cc:license
           rdf:resource="https://gitlab.com/cquasar/minimalist-linux-logo/LICENSE" />
        <dc:description>https://gitlab.com/cquasar/minimalist-linux-logo</dc:description>
        <dc:contributor>
          <cc:Agent>
            <dc:title>https://gitlab.com/cquasar/minimalist-linux-logo/-/project_members</dc:title>
          </cc:Agent>
        </dc:contributor>
      </cc:Work>
    </rdf:RDF>
  </metadata>
</svg>
