<?xml version="1.0" encoding="UTF-8" standalone="no"?>
<svg
   version="1.1"
   id="linux-logo"
   width="512"
   height="511.99997"
   viewBox="0 0 512 511.99997"
   sodipodi:docname="linux-logo-icon-primary-color.svg"
   inkscape:version="1.2.2 (b0a8486541, 2022-12-01)"
   xmlns:inkscape="http://www.inkscape.org/namespaces/inkscape"
   xmlns:sodipodi="http://sodipodi.sourceforge.net/DTD/sodipodi-0.dtd"
   xmlns="http://www.w3.org/2000/svg"
   xmlns:svg="http://www.w3.org/2000/svg"
   xmlns:rdf="http://www.w3.org/1999/02/22-rdf-syntax-ns#"
   xmlns:cc="http://creativecommons.org/ns#"
   xmlns:dc="http://purl.org/dc/elements/1.1/">
  <defs
     id="defs14" />
  <title
     id="title">Minimalist Linux Logo</title>
  <sodipodi:namedview
     id="namedview14"
     pagecolor="#ffffff"
     bordercolor="#000000"
     borderopacity="0.25"
     inkscape:showpageshadow="2"
     inkscape:pageopacity="0"
     inkscape:pagecheckerboard="0"
     inkscape:deskcolor="#d1d1d1"
     showgrid="false"
     inkscape:zoom="0.14327365"
     inkscape:cx="879.43594"
     inkscape:cy="1169.0914"
     inkscape:window-width="1630"
     inkscape:window-height="1599"
     inkscape:window-x="1691"
     inkscape:window-y="451"
     inkscape:window-maximized="0"
     inkscape:current-layer="linux-logo" />
  <path
     id="icon"
     style="fill:#eebc1d"
     d="M 256.01472,0 C 190.06539,0 137.04273,53.10466 137.04273,119.05933 v 2.477 a 2.3995675,2.3997566 0 0 1 -3.096,2.32233 v 0 a 106.50984,106.51823 0 0 0 -99.234002,22.06233 c -45.20466,40.25367 -46.44333,112.24667 -2.63166,161.48033 0,0 77.947332,79.42433 110.534662,124.24533 30.42033,43.428 56.81566,80.35333 113.39899,80.35333 0,0 0,0 0,0 56.50633,0 82.97867,-36.92533 113.32166,-80.35333 32.58767,-44.821 110.61233,-124.24533 110.61233,-124.24533 43.734,-49.15633 42.573,-121.22666 -2.632,-161.48033 a 106.50984,106.51823 0 0 0 -99.31099,-22.06233 v 0 a 2.3995675,2.3997566 0 0 1 -3.096,-2.32233 v -2.477 C 374.98642,53.10466 321.88672,0 256.01472,0 c 0,0 0,0 0,0 0,0 0,0 0,0 z" />
  <metadata
     id="metadata692">
    <rdf:RDF>
      <cc:Work
         rdf:about="">
        <dc:title>Minimalist Linux Logo</dc:title>
        <dc:date>2022</dc:date>
        <dc:creator>
          <cc:Agent>
            <dc:title>Clint Quasar</dc:title>
          </cc:Agent>
        </dc:creator>
        <dc:rights>
          <cc:Agent>
            <dc:title>Linux Torvalds</dc:title>
          </cc:Agent>
        </dc:rights>
        <cc:license
           rdf:resource="https://gitlab.com/cquasar/minimalist-linux-logo/LICENSE" />
        <dc:description>https://gitlab.com/cquasar/minimalist-linux-logo</dc:description>
        <dc:contributor>
          <cc:Agent>
            <dc:title>https://gitlab.com/cquasar/minimalist-linux-logo/-/project_members</dc:title>
          </cc:Agent>
        </dc:contributor>
      </cc:Work>
    </rdf:RDF>
  </metadata>
</svg>
